C:\Users\HP\Documents\NetBeansProjects\MathParser\src\test\java\mathparser\unittest\NonBinaryExpressionTest.java
C:\Users\HP\Documents\NetBeansProjects\MathParser\src\test\java\mathparser\unittest\InvalidInputQueueStringTest.java
C:\Users\HP\Documents\NetBeansProjects\MathParser\src\test\java\mathparser\unittest\DivisionByZeroTest.java
C:\Users\HP\Documents\NetBeansProjects\MathParser\src\test\java\mathparser\unittest\ResultParserWithParenthesisTest.java
C:\Users\HP\Documents\NetBeansProjects\MathParser\src\test\java\mathparser\unittest\NonMatchingParenthesisTest.java
